module gitlab.com/remotejob/go-private-example

go 1.19

require github.com/remotejob/go-filter v0.0.0-20221110205917-fa850f751efa

require golang.org/x/exp v0.0.0-20220722155223-a9213eeb770e // indirect
